[gd_scene load_steps=3 format=2]

[ext_resource path="res://Nodes/Prefabs/DeathCollider.gd" type="Script" id=1]

[sub_resource type="BoxShape" id=1]
extents = Vector3( 3, 0.286242, 0.601611 )

[node name="DeathCollider" type="Area"]
script = ExtResource( 1 )

[node name="CollisionShape" type="CollisionShape" parent="."]
shape = SubResource( 1 )
[connection signal="body_entered" from="." to="." method="_on_DeathCollider_body_entered"]
