[gd_scene load_steps=3 format=2]

[ext_resource path="res://Material/Player/cilindro.fbx" type="PackedScene" id=1]

[sub_resource type="CapsuleShape" id=1]
radius = 0.29055
height = 0.811382

[node name="Grabber" type="Area"]

[node name="Graphics" parent="." instance=ExtResource( 1 )]
transform = Transform( 0.5, 0, 0, 0, 1.5, 0, 0, 0, 0.5, 0, 0, 0 )

[node name="CollisionShape" type="CollisionShape" parent="."]
transform = Transform( 1, 0, 0, 0, -1.62921e-07, -1, 0, 1, -1.62921e-07, 0, 1.20197, 0 )
shape = SubResource( 1 )

[editable path="Graphics"]
