[gd_scene load_steps=4 format=2]

[ext_resource path="res://Nodes/Prefabs/RepairStation.gd" type="Script" id=1]

[sub_resource type="SphereShape" id=1]

[sub_resource type="SphereMesh" id=2]

[node name="RepairStation" type="Area"]
script = ExtResource( 1 )

[node name="CollisionShape" type="CollisionShape" parent="."]
transform = Transform( 0.5, 0, 0, 0, 0.5, 0, 0, 0, 0.5, 0, 0, 0 )
shape = SubResource( 1 )

[node name="CSGMesh" type="CSGMesh" parent="."]
transform = Transform( 0.5, 0, 0, 0, 0.5, 0, 0, 0, 0.5, 0, 0, 0 )
mesh = SubResource( 2 )
[connection signal="body_entered" from="." to="." method="_on_RepairStation_body_entered"]
